nl\kza\swat\util\TestConfig.class
nl\kza\swat\browser\BrowserFactory$RemoteBrowser.class
nl\kza\swat\browser\IBrowserActions.class
nl\kza\swat\template\PageTemplate.class
nl\kza\swat\browser\BrowserFactory$1.class
nl\kza\swat\pages\KzaMainPage.class
nl\kza\swat\browser\BrowserInteractionImpl.class
nl\kza\swat\browser\BrowserFactory$ChromeBrowser.class
nl\kza\swat\browser\SharedDriver$1.class
nl\kza\swat\basepages\BasePage.class
nl\kza\swat\browser\BrowserFactory.class
nl\kza\swat\models\User.class
nl\kza\swat\browser\BrowserFactory$IEBrowser.class
nl\kza\swat\browser\SharedDriver.class
nl\kza\swat\pages\KzaExpertisePage.class
nl\kza\swat\browser\BrowserFactory$FirefoxBrowser.class
nl\kza\swat\util\YamlLoader.class
